m,d,nb_tests,rho_K,everything_went_well,P_empirical,P_expected,s
49,21,1000,0.155885830892716,True,42,38.478,50.0106853166517
49,21,1000,0.155885830892716,True,23,35.916,67.0688600480075
49,21,1000,0.155885830892716,True,30,37.258,57.5257958774998
49,21,1000,0.155885830892716,True,39,38.041,52.5568505692337
49,21,1000,0.155885830892716,True,34,36.520,61.6742915334553
49,21,1000,0.155885830892716,True,35,37.759,54.1569154039561
49,21,1000,0.155885830892716,True,27,36.866,59.6255218744810
49,21,1000,0.155885830892716,True,37,36.626,61.3890062133552
49,21,1000,0.155885830892716,True,33,38.381,50.3251280660461
49,21,1000,0.155885830892716,True,41,36.964,59.1366841819865
