m,d,nb_tests,rho_K,everything_went_well,P_empirical,P_expected,s
47,23,1000,0.115741433968340,True,50,45.376,59.5547878383768
47,23,1000,0.115741433968340,True,40,43.829,68.7192403657003
47,23,1000,0.115741433968340,True,43,44.704,63.0757680244761
47,23,1000,0.115741433968340,True,53,44.258,66.3105874279842
47,23,1000,0.115741433968340,True,40,43.720,69.9498348257989
47,23,1000,0.115741433968340,True,45,43.902,68.0638365321037
47,23,1000,0.115741433968340,True,49,42.761,76.4023150791879
47,23,1000,0.115741433968340,True,41,43.238,71.9502949484987
47,23,1000,0.115741433968340,True,51,46.273,54.8321888784511
47,23,1000,0.115741433968340,True,50,44.193,66.9054204535264
