m,d,nb_tests,rho_K,everything_went_well,P_empirical,P_expected,s
53,26,1000,0.139948174148040,True,32,31.068,78.9272672891904
53,26,1000,0.139948174148040,True,29,30.528,85.4728589556748
53,26,1000,0.139948174148040,True,40,30.955,80.2686262605921
53,26,1000,0.139948174148040,True,31,30.515,85.5799471602205
53,26,1000,0.139948174148040,True,30,30.625,84.0356253645030
53,26,1000,0.139948174148040,True,40,31.213,77.3534749238939
53,26,1000,0.139948174148040,True,45,32.174,68.4466429791867
53,26,1000,0.139948174148040,True,39,32.042,69.1665363473079
53,26,1000,0.139948174148040,True,28,30.451,85.9807582293195
53,26,1000,0.139948174148040,True,36,30.883,80.4503463636414
