m,d,nb_tests,rho_K,everything_went_well,P_empirical,P_expected,s
84,12,2000,0.149621883480426,True,219,165.35,27.8181237565904
84,12,2000,0.149621883480426,True,253,172.95,23.8552712507551
84,12,2000,0.149621883480426,True,233,173.80,23.4928659916226
84,12,2000,0.149621883480426,True,215,170.88,24.9603235197310
84,12,2000,0.149621883480426,True,262,205.71,14.3144470620743
84,12,2000,0.149621883480426,True,219,188.77,18.1330865518324
84,12,2000,0.149621883480426,True,245,191.71,17.4778147333125
84,12,2000,0.149621883480426,True,252,181.82,20.5186138294734
84,12,2000,0.149621883480426,True,215,179.01,21.4097499274644
84,12,2000,0.149621883480426,True,256,191.32,17.5153440879709
84,12,2000,0.149621883480426,True,234,168.48,25.8279934130382
84,12,2000,0.149621883480426,True,249,179.49,21.2067353138335
84,12,2000,0.149621883480426,True,191,165.68,27.3619598790059
84,12,2000,0.149621883480426,True,253,182.09,20.3296699813466
84,12,2000,0.149621883480426,True,224,168.58,25.8526536881663
84,12,2000,0.149621883480426,True,201,156.82,33.0330479681803
84,12,2000,0.149621883480426,True,223,169.49,25.5981266913528
84,12,2000,0.149621883480426,True,233,189.84,17.9135919315772
84,12,2000,0.149621883480426,True,227,170.83,24.7429360764477
84,12,2000,0.149621883480426,True,223,179.89,21.1566603081451
