m,d,nb_tests,rho_K,everything_went_well,P_empirical,P_expected,s
59,29,1000,0.0986518668009621,True,32,37.864,95.7729628041797
59,29,1000,0.0986518668009621,True,28,38.727,85.5795567578788
59,29,1000,0.0986518668009621,True,31,40.722,69.3777195174399
59,29,1000,0.0986518668009621,True,35,39.277,80.5566697911503
59,29,1000,0.0986518668009621,True,27,38.639,87.2512334752847
59,29,1000,0.0986518668009621,True,29,38.169,91.9745010945988
59,29,1000,0.0986518668009621,True,35,38.884,84.6024804362780
59,29,1000,0.0986518668009621,True,34,36.963,106.872585710256
59,29,1000,0.0986518668009621,True,31,38.743,85.9419315566626
59,29,1000,0.0986518668009621,True,27,37.782,96.5278123587834
