m,d,nb_tests,rho_K,everything_went_well,P_empirical,P_expected,s
116,28,1000,0.121935141055807,True,34,32.632,84.3388243292611
116,28,1000,0.121935141055807,True,32,32.783,82.7328291847768
116,28,1000,0.121935141055807,True,20,33.223,77.8729787527140
116,28,1000,0.121935141055807,True,24,32.374,87.1062217904817
116,28,1000,0.121935141055807,True,34,31.752,94.8848534514228
116,28,1000,0.121935141055807,True,20,32.005,92.2002850868432
116,28,1000,0.121935141055807,True,27,32.801,82.1109310305857
116,28,1000,0.121935141055807,True,36,32.549,85.2287262200287
116,28,1000,0.121935141055807,True,41,31.663,96.9029519050808
116,28,1000,0.121935141055807,True,27,32.285,88.7127819104777
