m,d,nb_tests,rho_K,everything_went_well,P_empirical,P_expected,s
46,11,2000,0.161379507546399,True,245,182.48,20.9154599434274
46,11,2000,0.161379507546399,True,238,183.48,20.6204892924320
46,11,2000,0.161379507546399,True,248,196.79,16.7903125423860
46,11,2000,0.161379507546399,True,242,177.43,22.9379060598220
46,11,2000,0.161379507546399,True,283,195.17,17.2499156386365
46,11,2000,0.161379507546399,True,251,195.92,16.8672116824680
46,11,2000,0.161379507546399,True,278,220.79,12.1353193622362
46,11,2000,0.161379507546399,True,229,182.25,21.1311738326711
46,11,2000,0.161379507546399,True,238,193.56,17.5241607712459
46,11,2000,0.161379507546399,True,245,182.54,20.8338695753992
46,11,2000,0.161379507546399,True,230,177.02,22.9020425219715
46,11,2000,0.161379507546399,True,212,180.46,21.6658251303763
46,11,2000,0.161379507546399,True,242,189.89,18.5696646131936
46,11,2000,0.161379507546399,True,225,173.33,24.7152316435822
46,11,2000,0.161379507546399,True,283,217.53,12.7266645803929
46,11,2000,0.161379507546399,True,237,190.95,18.2172168077864
46,11,2000,0.161379507546399,True,233,187.59,19.3758749589797
46,11,2000,0.161379507546399,True,237,184.54,20.3066124322279
46,11,2000,0.161379507546399,True,231,188.33,19.0827012246703
46,11,2000,0.161379507546399,True,215,166.63,27.8545157559594
