m,d,nb_tests,rho_K,everything_went_well,P_empirical,P_expected,s
27,9,2000,0.231080999727450,True,256,177.74,14.4571452769433
27,9,2000,0.231080999727450,True,183,182.22,13.3776903693086
27,9,2000,0.231080999727450,True,223,186.30,12.6251066603762
27,9,2000,0.231080999727450,True,158,168.32,16.6789962762656
27,9,2000,0.231080999727450,True,246,192.32,11.7114857300106
27,9,2000,0.231080999727450,True,199,155.03,21.4297451863662
27,9,2000,0.231080999727450,True,214,209.02,9.61219732780010
27,9,2000,0.231080999727450,True,175,191.61,11.8034557230886
27,9,2000,0.231080999727450,True,222,193.33,11.4700801575267
27,9,2000,0.231080999727450,True,236,184.62,12.8949867695357
27,9,2000,0.231080999727450,True,172,157.49,20.1776417258985
27,9,2000,0.231080999727450,True,261,194.24,11.3963168190579
27,9,2000,0.231080999727450,True,139,169.58,16.3565486414622
27,9,2000,0.231080999727450,True,268,186.55,12.6251066603762
27,9,2000,0.231080999727450,True,153,179.56,13.8331366140517
27,9,2000,0.231080999727450,True,159,165.29,17.5328662619229
27,9,2000,0.231080999727450,True,143,166.78,17.0944752285869
27,9,2000,0.231080999727450,True,149,181.01,13.6366737592734
27,9,2000,0.231080999727450,True,171,173.53,15.2985953591020
27,9,2000,0.231080999727450,True,238,184.77,13.0047544383077
