m,d,nb_tests,rho_K,everything_went_well,P_empirical,P_expected,s
87,28,1000,0.127158976566241,True,23,30.311,97.7106376759161
87,28,1000,0.127158976566241,True,20,30.116,100.918918388666
87,28,1000,0.127158976566241,True,23,31.199,85.6618120786405
87,28,1000,0.127158976566241,True,21,30.112,100.362439869237
87,28,1000,0.127158976566241,True,22,30.232,99.0621681450219
87,28,1000,0.127158976566241,True,27,30.304,96.5579664202487
87,28,1000,0.127158976566241,True,12,30.577,93.8008322679407
87,28,1000,0.127158976566241,True,12,30.587,93.6381314263859
87,28,1000,0.127158976566241,True,25,29.553,109.577982479286
87,28,1000,0.127158976566241,True,29,31.128,86.3353987099774
