m,d,nb_tests,rho_K,everything_went_well,P_empirical,P_expected,s
35,12,2000,0.144402516780441,True,227,172.24,27.1910499958766
35,12,2000,0.144402516780441,True,230,186.08,21.0894484268772
35,12,2000,0.144402516780441,True,227,183.79,22.1707589595723
35,12,2000,0.144402516780441,True,199,179.71,23.5403444822090
35,12,2000,0.144402516780441,True,214,171.20,27.5076213117906
35,12,2000,0.144402516780441,True,249,190.09,19.8786403863212
35,12,2000,0.144402516780441,True,265,213.14,14.3439390851077
35,12,2000,0.144402516780441,True,252,203.32,16.2513918159452
35,12,2000,0.144402516780441,True,215,165.20,31.3398115682790
35,12,2000,0.144402516780441,True,224,175.99,25.2406675475695
35,12,2000,0.144402516780441,True,223,183.74,21.9625720496375
35,12,2000,0.144402516780441,True,250,173.01,26.6779311669705
35,12,2000,0.144402516780441,True,238,169.74,28.6524239132091
35,12,2000,0.144402516780441,True,224,183.14,22.2926922627563
35,12,2000,0.144402516780441,True,201,162.92,32.8606761402331
35,12,2000,0.144402516780441,True,250,193.03,18.9342992944219
35,12,2000,0.144402516780441,True,246,180.39,23.4625151745634
35,12,2000,0.144402516780441,True,195,166.82,30.4917621164091
35,12,2000,0.144402516780441,True,241,172.50,26.9941250935016
35,12,2000,0.144402516780441,True,232,174.68,25.8944404827085
