m,d,nb_tests,rho_K,everything_went_well,P_empirical,P_expected,s
117,36,1000,0.118994201570092,True,20,23.547,133.958763562689
117,36,1000,0.118994201570092,True,24,23.449,137.264047526462
117,36,1000,0.118994201570092,True,19,24.059,120.595113497453
117,36,1000,0.118994201570092,True,21,23.368,140.306700506712
117,36,1000,0.118994201570092,True,18,23.562,133.551623005715
117,36,1000,0.118994201570092,True,21,23.370,139.183653771856
117,36,1000,0.118994201570092,True,11,23.707,130.485306456486
117,36,1000,0.118994201570092,True,20,23.598,132.448227936682
117,36,1000,0.118994201570092,True,16,23.663,131.568082461955
117,36,1000,0.118994201570092,True,19,24.494,110.952158440242
