m,d,nb_tests,rho_K,everything_went_well,P_empirical,P_expected,s
54,9,2000,0.231080999727450,True,249,188.84,12.3247908661805
54,9,2000,0.231080999727450,True,179,153.35,22.0151983150671
54,9,2000,0.231080999727450,True,179,173.76,15.3868302143528
54,9,2000,0.231080999727450,True,249,181.01,13.6687746201462
54,9,2000,0.231080999727450,True,170,167.44,17.0248819092185
54,9,2000,0.231080999727450,True,240,183.50,13.1730127669628
54,9,2000,0.231080999727450,True,177,182.29,13.4528000811558
54,9,2000,0.231080999727450,True,224,180.99,13.6366737592734
54,9,2000,0.231080999727450,True,283,217.92,8.80788013540550
54,9,2000,0.231080999727450,True,262,200.35,10.5512469061674
54,9,2000,0.231080999727450,True,239,210.48,9.41019890526218
54,9,2000,0.231080999727450,True,230,163.93,17.9449582926670
54,9,2000,0.231080999727450,True,210,176.30,14.6503515818739
54,9,2000,0.231080999727450,True,203,162.29,18.3438546946674
54,9,2000,0.231080999727450,True,187,186.73,12.6251066603762
54,9,2000,0.231080999727450,True,177,176.06,14.5782174578319
54,9,2000,0.231080999727450,True,144,158.09,19.9468809483595
54,9,2000,0.231080999727450,True,212,182.34,13.4473858256618
54,9,2000,0.231080999727450,True,172,182.73,13.3080309164502
54,9,2000,0.231080999727450,True,152,167.45,17.0101332044117
