m,d,nb_tests,rho_K,everything_went_well,P_empirical,P_expected,s
86,21,1000,0.127161206531213,True,40,46.668,52.2961559185882
86,21,1000,0.127161206531213,True,38,45.505,58.4424558213896
86,21,1000,0.127161206531213,True,43,46.837,51.5200584120746
86,21,1000,0.127161206531213,True,33,45.848,56.0386308940231
86,21,1000,0.127161206531213,True,37,45.296,59.3139709258298
86,21,1000,0.127161206531213,True,27,44.032,66.6242173881020
86,21,1000,0.127161206531213,True,55,48.528,44.8045897427708
86,21,1000,0.127161206531213,True,39,46.969,50.8812403097572
86,21,1000,0.127161206531213,True,34,45.744,56.9126690386991
86,21,1000,0.127161206531213,True,37,45.490,57.8977652181922
